Data manipulation on metric graphs • MetricGraph
…
graph$add_observations(data = df_data, edge_number = "edge", 
                    distance_on_edge = "pos", normalized = TRUE)

## Adding observations...

We can check that the data was successfully added by retrieving them
from the metric graph using the get_data() method:

graph$get_data()

## # A tibble: 200 × 6
##          y .edge_number .distance_on_edge .group .coord_x .coord_y
##      <dbl>        <dbl>             <dbl>  <dbl>    <dbl>    <dbl>
##  1 -0.0736            1            0.0134      1   0.0134        0
##  2  2.09              1            0.0233      1   0.0233        0
##  3  1.68              1            0.0618      1   0.0618        0
##  4 -0.528             1            0.108       1   0.108         0
##  5 -0.180             1            0.126       1   0.126         0
##  6 -0.462             1            0.177       1   0.177         0
##  7 -1.52              1            0.186       1   0.186         0
##  8 -0.655             1            0.202       1   0.202         0
##  9 -0.636             1            0.206       1   0.206         0
## 10  1.34              1            0.212       1   0.212         0
## # ℹ 190 more rows
…
graph$add_observations(data = df_data2, data_coords = "spatial", 
                            coord_x = "coordx", coord_y = "coordy")

## Adding observations...

## Converting data to PtE

## [1] y2     coordx coordy
## <0 rows> (or 0-length row.names)

Let us check that the data was successfully added:

graph$get_data()

## # A tibble: 250 × 8
##          y     y2 .distance_to_graph .edge_number .distance_on_edge .group
##      <dbl>  <dbl>              <dbl>        <dbl>             <dbl>  <dbl>
##  1 -0.0736 NA                     NA            1            0.0134      1
##  2  2.09   NA                     NA            1            0.0233      1
##  3 NA       0.278                  0            1            0.0308      1
##  4 NA      -2.26                   0            1            0.0574      1
##  5  1.68   NA                     NA            1            0.0618      1
##  6 NA      -0.636                  0            1            0.0649      1
##  7 NA       1.31                   0            1            0.0978      1
##  8 NA      -0.334                  0            1            0.107       1
##  9 -0.528  NA                     NA            1            0.108       1
## 10 -0.180  NA                     NA            1            0.126       1
## # ℹ 240 more rows
## # ℹ 2 more variables: .coord_x <dbl>, .coord_y <dbl>
…
df_data3 <- data.frame(y3=y3, edge_number = obs_loc[,1], distance_on_edge = obs_loc[,2])

We can now add the data. Remember to set normalized to
TRUE since we are providing the relative distance on
edge:

graph$add_observations(data = df_data3, normalized = TRUE)

## Adding observations...

and check:

graph$get_data()

## # A tibble: 200 × 6
##         y3 .edge_number .distance_on_edge .group .coord_x .coord_y
##      <dbl>        <dbl>             <dbl>  <dbl>    <dbl>    <dbl>
##  1  1.90              1            0.0134      1   0.0134        0
##  2 -0.710             1            0.0233      1   0.0233        0
##  3  1.15              1            0.0618      1   0.0618        0
##  4  1.12              1            0.108       1   0.108         0
##  5 -0.715             1            0.126       1   0.126         0
##  6 -2.13              1            0.177       1   0.177         0
##  7  1.44              1            0.186       1   0.186         0
##  8  1.76              1            0.202       1   0.202         0
##  9 -0.0565            1            0.206       1   0.206         0
## 10  1.59              1            0.212       1   0.212         0
## # ℹ 190 more rows
…
graph$add_observations(data = df_data4, clear_obs = TRUE, 
                            data_coords = "spatial")

## Adding observations...

## Converting data to PtE

## [1] y4      coord_x coord_y
## <0 rows> (or 0-length row.names)

and we can check it replaced:

graph$get_data()

## # A tibble: 50 × 7
##       y4 .distance_to_graph .edge_number .distance_on_edge .group .coord_x
##    <dbl>              <dbl>        <dbl>             <dbl>  <dbl>    <dbl>
##  1 1.32                   0            1            0.0308      1   0.0308
##  2 0.104                  0            1            0.0574      1   0.0574
##  3 0.530                  0            1            0.0649      1   0.0649
##  4 3.72                   0            1            0.0978      1   0.0978
##  5 0.716                  0            1            0.107       1   0.107 
##  6 2.23                   0            1            0.136       1   0.136 
##  7 1.19                   0            1            0.147       1   0.147 
##  8 0.345                  0            1            0.153       1   0.153 
##  9 0.564                  0            1            0.202       1   0.202 
## 10 2.50                   0            1            0.213       1   0.213 
## # ℹ 40 more rows
## # ℹ 1 more variable: .coord_y <dbl>
…
graph$add_observations(data = df_data_repl, 
                        normalized = TRUE, 
                        clear_obs = TRUE, 
                        group = "repl")

## Adding observations...

Let us check the graph data. Observe that the grouping variable is
now .group.

graph$get_data()

## # A tibble: 1,000 × 7
##         y  repl .edge_number .distance_on_edge .group .coord_x .coord_y
##     <dbl> <int>        <dbl>             <dbl> <chr>     <dbl>    <dbl>
##  1  1.50      1            1            0.0134 1        0.0134        0
##  2 -1.79      1            1            0.0233 1        0.0233        0
##  3  0.488     1            1            0.0618 1        0.0618        0
##  4 -0.385     1            1            0.108  1        0.108         0
##  5  0.905     1            1            0.126  1        0.126         0
##  6 -0.145     1            1            0.177  1        0.177         0
##  7  2.00      1            1            0.186  1        0.186         0
##  8 -1.16      1            1            0.202  1        0.202         0
##  9  0.879     1            1            0.206  1        0.206         0
## 10 -0.816     1            1            0.212  1        0.212         0
## # ℹ 990 more rows

We can obtain the data for a given group by setting the
group argument in the get_data() method:

graph$get_data(group = "3")

## # A tibble: 200 × 7
##          y  repl .edge_number .distance_on_edge .group .coord_x .coord_y
##      <dbl> <int>        <dbl>             <dbl> <chr>     <dbl>    <dbl>
##  1  1.11       3            1            0.0134 3        0.0134        0
##  2  0.774      3            1            0.0233 3        0.0233        0
##  3  0.464      3            1            0.0618 3        0.0618        0
##  4 -1.62       3            1            0.108  3        0.108         0
##  5 -1.48       3            1            0.126  3        0.126         0
##  6 -0.815      3            1            0.177  3        0.177         0
##  7 -1.25       3            1            0.186  3        0.186         0
##  8  0.0646     3            1            0.202  3        0.202         0
##  9  0.129      3            1            0.206  3        0.206         0
## 10 -0.881      3            1            0.212  3        0.212         0
## # ℹ 190 more rows

We can also provide the group argument as a vector:

graph$get_data(group = c("3","5"))

## # A tibble: 400 × 7
##          y  repl .edge_number .distance_on_edge .group .coord_x .coord_y
##      <dbl> <int>        <dbl>             <dbl> <chr>     <dbl>    <dbl>
##  1  1.11       3            1            0.0134 3        0.0134        0
##  2  0.774      3            1            0.0233 3        0.0233        0
##  3  0.464      3            1            0.0618 3        0.0618        0
##  4 -1.62       3            1            0.108  3        0.108         0
##  5 -1.48       3            1            0.126  3        0.126         0
##  6 -0.815      3            1            0.177  3        0.177         0
##  7 -1.25       3            1            0.186  3        0.186         0
##  8  0.0646     3            1            0.202  3        0.202         0
##  9  0.129      3            1            0.206  3        0.206         0
## 10 -0.881      3            1            0.212  3        0.212         0
## # ℹ 390 more rows
…
graph$add_observations(data = df_adv_grp, 
                        normalized = TRUE, 
                        clear_obs = TRUE, 
                        group = c("repl_1", "repl_2"))

## Adding observations...

Let us take a look at the grouped variables. They are stored in the
.group column:

graph$get_data()

## # A tibble: 2,000 × 8
##         y repl_1 repl_2 .edge_number .distance_on_edge .group .coord_x .coord_y
##     <dbl>  <int> <chr>         <dbl>             <dbl> <chr>     <dbl>    <dbl>
##  1  1.15       1 a                 1             0.206 1.a       0.206        0
##  2 -0.529      1 a                 1             0.266 1.a       0.266        0
##  3  0.344      1 a                 1             0.386 1.a       0.386        0
##  4  0.921      1 a                 1             0.482 1.a       0.482        0
##  5 -0.626      1 a                 1             0.498 1.a       0.498        0
##  6  0.760      1 a                 1             0.668 1.a       0.668        0
##  7  0.101      1 a                 1             0.789 1.a       0.789        0
##  8  1.31       1 a                 1             0.821 1.a       0.821        0
##  9 -1.35       1 a                 1             0.898 1.a       0.898        0
## 10 -1.05       1 a                 1             0.935 1.a       0.935        0
## # ℹ 1,990 more rows
…
graph$add_observations(data = df_adv_grp, 
                        normalized = TRUE, 
                        clear_obs = TRUE, 
                        group = c("repl_1", "repl_2"),
                        group_sep = ":")

## Adding observations...

Then,

graph$get_data()

## # A tibble: 2,000 × 8
##         y repl_1 repl_2 .edge_number .distance_on_edge .group .coord_x .coord_y
##     <dbl>  <int> <chr>         <dbl>             <dbl> <chr>     <dbl>    <dbl>
##  1  1.15       1 a                 1             0.206 1:a       0.206        0
##  2 -0.529      1 a                 1             0.266 1:a       0.266        0
##  3  0.344      1 a                 1             0.386 1:a       0.386        0
##  4  0.921      1 a                 1             0.482 1:a       0.482        0
##  5 -0.626      1 a                 1             0.498 1:a       0.498        0
##  6  0.760      1 a                 1             0.668 1:a       0.668        0
##  7  0.101      1 a                 1             0.789 1:a       0.789        0
##  8  1.31       1 a                 1             0.821 1:a       0.821        0
##  9 -1.35       1 a                 1             0.898 1:a       0.898        0
## 10 -1.05       1 a                 1             0.935 1:a       0.935        0
## # ℹ 1,990 more rows
…
df_tidy[["y2"]][2] <- NA
df_tidy[["y3"]][3] <- NA

graph$add_observations(data = df_tidy, clear_obs = TRUE, normalized = TRUE)

## Adding observations...

Let us look at the complete data:

graph$get_data(drop_all_na = FALSE)

## # A tibble: 200 × 9
##         y     y2      y3     y4 .edge_number .distance_on_edge .group .coord_x
##     <dbl>  <dbl>   <dbl>  <dbl>        <dbl>             <dbl>  <dbl>    <dbl>
##  1 NA     NA     NA      NA                1            0.0134      1   0.0134
##  2  2.09  NA      4.36    0.870            1            0.0233      1   0.0233
##  3  1.68   5.38  NA       0.994            1            0.0618      1   0.0618
##  4 -0.528  0.590  0.279  -0.504            1            0.108       1   0.108 
##  5 -0.180  0.836  0.0322 -0.179            1            0.126       1   0.126 
##  6 -0.462  0.630  0.213  -0.445            1            0.177       1   0.177 
##  7 -1.52   0.219  2.31   -0.999            1            0.186       1   0.186 
##  8 -0.655  0.520  0.428  -0.609            1            0.202       1   0.202 
##  9 -0.636  0.530  0.404  -0.594            1            0.206       1   0.206 
## 10  1.34   3.83   1.80    0.974            1            0.212       1   0.212 
## # ℹ 190 more rows
## # ℹ 1 more variable: .coord_y <dbl>

select

The verb select allows one to choose which columns to
keep or to remove.

For example, let us select the columns y and
y2 from the metric graph dataset using the
select() method:

graph$select(y,y2)

## # A tibble: 199 × 7
##         y     y2 .group .edge_number .distance_on_edge .coord_x .coord_y
##     <dbl>  <dbl>  <dbl>        <dbl>             <dbl>    <dbl>    <dbl>
##  1  2.09  NA          1            1            0.0233   0.0233        0
##  2  1.68   5.38       1            1            0.0618   0.0618        0
##  3 -0.528  0.590      1            1            0.108    0.108         0
##  4 -0.180  0.836      1            1            0.126    0.126         0
##  5 -0.462  0.630      1            1            0.177    0.177         0
##  6 -1.52   0.219      1            1            0.186    0.186         0
##  7 -0.655  0.520      1            1            0.202    0.202         0
##  8 -0.636  0.530      1            1            0.206    0.206         0
##  9  1.34   3.83       1            1            0.212    0.212         0
## 10 -0.620  0.538      1            1            0.266    0.266         0
## # ℹ 189 more rows

First, observe that this select verb is metric graph
friendly since it does not remove the columns related to spatial
locations.

Also observe that the first original row, that contains only
NA was removed by default. To return all the rows, we can
set the argument .drop_all_na to FALSE:

graph$select(y, y2, .drop_all_na = FALSE)

## # A tibble: 200 × 7
##         y     y2 .group .edge_number .distance_on_edge .coord_x .coord_y
##     <dbl>  <dbl>  <dbl>        <dbl>             <dbl>    <dbl>    <dbl>
##  1 NA     NA          1            1            0.0134   0.0134        0
##  2  2.09  NA          1            1            0.0233   0.0233        0
##  3  1.68   5.38       1            1            0.0618   0.0618        0
##  4 -0.528  0.590      1            1            0.108    0.108         0
##  5 -0.180  0.836      1            1            0.126    0.126         0
##  6 -0.462  0.630      1            1            0.177    0.177         0
##  7 -1.52   0.219      1            1            0.186    0.186         0
##  8 -0.655  0.520      1            1            0.202    0.202         0
##  9 -0.636  0.530      1            1            0.206    0.206         0
## 10  1.34   3.83       1            1            0.212    0.212         0
## # ℹ 190 more rows

Further, observe that the second row also contain an NA
value in y2. To remove all the rows that contain
NA for at least one variable, we can set the argument
.drop_na to TRUE:

graph$select(y, y2, .drop_na = TRUE)

## # A tibble: 198 × 7
##         y    y2 .group .edge_number .distance_on_edge .coord_x .coord_y
##     <dbl> <dbl>  <dbl>        <dbl>             <dbl>    <dbl>    <dbl>
##  1  1.68  5.38       1            1            0.0618   0.0618        0
##  2 -0.528 0.590      1            1            0.108    0.108         0
##  3 -0.180 0.836      1            1            0.126    0.126         0
##  4 -0.462 0.630      1            1            0.177    0.177         0
##  5 -1.52  0.219      1            1            0.186    0.186         0
##  6 -0.655 0.520      1            1            0.202    0.202         0
##  7 -0.636 0.530      1            1            0.206    0.206         0
##  8  1.34  3.83       1            1            0.212    0.212         0
##  9 -0.620 0.538      1            1            0.266    0.266         0
## 10 -0.100 0.905      1            1            0.267    0.267         0
## # ℹ 188 more rows

Moreover, if we want to remove a column, we can simply use the
select() method together with adding a minus sign
- in front of the column we want to be removed. For
example, to remove y2, we can do:

graph$select(-y2)

## # A tibble: 199 × 8
##         y      y3     y4 .edge_number .distance_on_edge .group .coord_x .coord_y
##     <dbl>   <dbl>  <dbl>        <dbl>             <dbl>  <dbl>    <dbl>    <dbl>
##  1  2.09   4.36    0.870            1            0.0233      1   0.0233        0
##  2  1.68  NA       0.994            1            0.0618      1   0.0618        0
##  3 -0.528  0.279  -0.504            1            0.108       1   0.108         0
##  4 -0.180  0.0322 -0.179            1            0.126       1   0.126         0
##  5 -0.462  0.213  -0.445            1            0.177       1   0.177         0
##  6 -1.52   2.31   -0.999            1            0.186       1   0.186         0
##  7 -0.655  0.428  -0.609            1            0.202       1   0.202         0
##  8 -0.636  0.404  -0.594            1            0.206       1   0.206         0
##  9  1.34   1.80    0.974            1            0.212       1   0.212         0
## 10 -0.620  0.385  -0.581            1            0.266       1   0.266         0
## # ℹ 189 more rows

Alternatively, we can combine the select() function with
the output of get_data() to obtain the same results:

graph$get_data() %>% select(y,y2)

## # A tibble: 199 × 7
##         y     y2 .group .edge_number .distance_on_edge .coord_x .coord_y
##     <dbl>  <dbl>  <dbl>        <dbl>             <dbl>    <dbl>    <dbl>
##  1  2.09  NA          1            1            0.0233   0.0233        0
##  2  1.68   5.38       1            1            0.0618   0.0618        0
##  3 -0.528  0.590      1            1            0.108    0.108         0
##  4 -0.180  0.836      1            1            0.126    0.126         0
##  5 -0.462  0.630      1            1            0.177    0.177         0
##  6 -1.52   0.219      1            1            0.186    0.186         0
##  7 -0.655  0.520      1            1            0.202    0.202         0
##  8 -0.636  0.530      1            1            0.206    0.206         0
##  9  1.34   3.83       1            1            0.212    0.212         0
## 10 -0.620  0.538      1            1            0.266    0.266         0
## # ℹ 189 more rows

Observe that the spatial locations columns were not removed as well.
To avoid removing NA variables, we need to set the argument
drop_all_na to FALSE when using the
get_data() method:

graph$get_data(drop_all_na = FALSE) %>% select(y,y2)

## # A tibble: 200 × 7
##         y     y2 .group .edge_number .distance_on_edge .coord_x .coord_y
##     <dbl>  <dbl>  <dbl>        <dbl>             <dbl>    <dbl>    <dbl>
##  1 NA     NA          1            1            0.0134   0.0134        0
##  2  2.09  NA          1            1            0.0233   0.0233        0
##  3  1.68   5.38       1            1            0.0618   0.0618        0
##  4 -0.528  0.590      1            1            0.108    0.108         0
##  5 -0.180  0.836      1            1            0.126    0.126         0
##  6 -0.462  0.630      1            1            0.177    0.177         0
##  7 -1.52   0.219      1            1            0.186    0.186         0
##  8 -0.655  0.520      1            1            0.202    0.202         0
##  9 -0.636  0.530      1            1            0.206    0.206         0
## 10  1.34   3.83       1            1            0.212    0.212         0
## # ℹ 190 more rows
…
