MetricGraph: Random Fields on Metric Graphs • MetricGraph
…
Let us also build an interactive plot with the underlying map:

graph$plot(vertex_size = 0.5, type = "mapview")

## Loading required namespace: mapview

Observe that when we create this graph from osmdata, it
also includes the edge data as edge weights:

graph$get_edge_weights()

## # A tibble: 368 × 11
##    osm_id   name    bridge highway layer lit   maxspeed maxweight oneway surface
##    <chr>    <chr>   <chr>  <chr>   <chr> <chr> <chr>    <chr>     <chr>  <chr>  
##  1 38085402 Discov… NA     reside… NA    yes   40       NA        NA     NA     
##  2 38085409 King A… NA     primary NA    yes   60       NA        yes    NA     
##  3 39425304 King A… NA     primary NA    NA    20       NA        yes    NA     
##  4 39425484 Peace … NA     reside… NA    NA    40       NA        NA     NA     
##  5 39425550 Island… NA     reside… NA    NA    40       NA        NA     NA     
##  6 39425743 Coral … NA     reside… NA    yes   40       NA        NA     NA     
##  7 39425802 Hammou… NA     reside… NA    yes   40       NA        NA     NA     
##  8 39426595 Najel … NA     reside… NA    yes   40       NA        yes    NA     
##  9 39478848 Discov… NA     reside… NA    NA    40       NA        NA     NA     
## 10 39478849 Explor… NA     reside… NA    yes   40       NA        NA     NA     
## # ℹ 358 more rows
## # ℹ 1 more variable: .weights <dbl>
…
range(graph$get_edge_lengths(unit="m")) 

## Units: [m]
## [1]    7.120828 1674.529905

Observe that it also contains the corresponding edge weights:

graph$get_edge_weights()

## # A tibble: 317 × 11
##    osm_id   name    bridge highway layer lit   maxspeed maxweight oneway surface
##    <chr>    <chr>   <chr>  <chr>   <chr> <chr> <chr>    <chr>     <chr>  <chr>  
##  1 38085402 Discov… NA     reside… NA    yes   40       NA        NA     NA     
##  2 38085409 King A… NA     primary NA    yes   60       NA        yes    NA     
##  3 39425304 King A… NA     primary NA    NA    20       NA        yes    NA     
##  4 39425484 Peace … NA     reside… NA    NA    40       NA        NA     NA     
##  5 39425550 Island… NA     reside… NA    NA    40       NA        NA     NA     
##  6 39425743 Coral … NA     reside… NA    yes   40       NA        NA     NA     
##  7 39426595 Najel … NA     reside… NA    yes   40       NA        yes    NA     
##  8 39478848 Discov… NA     reside… NA    NA    40       NA        NA     NA     
##  9 39478849 Explor… NA     reside… NA    yes   40       NA        NA     NA     
## 10 39478852 Transf… NA     reside… NA    NA    40       NA        NA     NA     
## # ℹ 307 more rows
## # ℹ 1 more variable: .weights <dbl>
…
