An example with a river graph model • MetricGraph
…
To create the graph, we simply pass the SSN object as
edges. This will automatically extract the correct coordinate reference
system (CRS). We have found that, typically, SSN objects do
not require merges.

graph <- metric_graph$new(mf04p)

Observe that this already added, by default, the observations and
edge weights contained in the SSN object:

graph$get_data()

## # A tibble: 45 × 31
##      rid   pid STREAMNAME     COMID AREAWTMAP   SLOPE ELEV_DEM Source  Summer_mn
##    <int> <int> <chr>          <int>     <dbl>   <dbl>    <int> <chr>       <dbl>
##  1     1     3 Bear Valley 23519365     1001. 0.00274     1958 RMRS_M…      14.6
##  2     1     2 Bear Valley 23519365     1001. 0.00274     1952 RMRS_M…      14.7
##  3     1     1 Bear Valley 23519365     1001. 0.00274     1947 RMRS_M…      14.9
##  4     5     5 Bear Valley 23519297     1007. 0.00568     1932 RMRS_M…      14.5
##  5     5     4 Bear Valley 23519297     1007. 0.00568     1923 RMRS_M…      15.2
##  6    10     6 Bear Valley 23519307     1009. 0.00042     1940 RMRS_M…      15.3
##  7    13     7 Bear Valley 23519313     1010. 0           1940 RMRS_M…      15.1
##  8    15     8 Bear Valley 23519317     1013. 0.00297     1945 RMRS_M…      14.9
##  9    17    10 Elk         23519321     1025. 0           1950 RMRS_M…      15.0
## 10    17     9 Elk         23519321     1025. 0           1948 RMRS_M…      15.0
## # ℹ 35 more rows
## # ℹ 22 more variables: MaxOver20 <dbl>, C16 <dbl>, C20 <dbl>, C24 <dbl>,
## #   FlowCMS <dbl>, AirMEANc <dbl>, AirMWMTc <dbl>, rcaAreaKm2 <dbl>,
## #   h2oAreaKm2 <dbl>, ratio <dbl>, snapdist <dbl>, upDist <dbl>, afvArea <dbl>,
## #   locID <int>, netID <dbl>, netgeom <chr>, .distance_to_graph <dbl>,
## #   .edge_number <dbl>, .distance_on_edge <dbl>, .group <dbl>, .coord_x <dbl>,
## #   .coord_y <dbl>

and

graph$get_edge_weights()

## # A tibble: 163 × 17
##      rid    COMID GNIS_NAME   REACHCODE FTYPE FCODE AREAWTMAP   SLOPE rcaAreaKm2
##    <int>    <int> <chr>       <chr>     <chr> <int>     <dbl>   <dbl>      <dbl>
##  1     1 23519365 Bear Valle… 17060205… Stre… 46006     1001. 0.00274     4.65  
##  2     2 23519367 Bear Valle… 17060205… Stre… 46006     1002. 0.0071      0.839 
##  3     3 23519369 Bear Valle… 17060205… Stre… 46006     1003. 0.0036      3.91  
##  4     4 23519295 Bear Valle… 17060205… Stre… 46006     1010. 0.0147      0.0495
##  5     5 23519297 Bear Valle… 17060205… Stre… 46006     1007. 0.00568     5.02  
##  6     6 23519299 Bear Valle… 17060205… Stre… 46006     1003. 0.00104     0.992 
##  7     7 23519301 Bear Valle… 17060205… Stre… 46006     1006. 0.00271     1.46  
##  8     8 23519303 Bear Valle… 17060205… Stre… 46006     1009. 0.00055     0.597 
##  9     9 23519305 Bear Valle… 17060205… Stre… 46006     1009. 0.00026     1.32  
## 10    10 23519307 Bear Valle… 17060205… Stre… 46006     1009. 0.00042     0.865 
## # ℹ 153 more rows
## # ℹ 8 more variables: h2oAreaKm2 <dbl>, Length <dbl>, upDist <dbl>,
## #   areaPI <dbl>, afvArea <dbl>, netID <dbl>, netgeom <chr>, .weights <dbl>
…
